…
      $`Compound 2 Loperamide\t\t\t\t\t\t\t\t\t\t\t\t\t\t\t\t\t\t\t`
      # A tibble: 25 x 20
         ...1  Name    Sampl~1 Type  Std. ~2 RT    Area  IS Ar~3 Respo~4 Prima~5 nM   
         <chr> <chr>   <chr>   <chr> <chr>   <chr> <chr> <chr>   <chr>   <chr>   <chr>
       1 1     202207~ blank   Blank ""      ""    ""    25432.~ ""      ""      ""   
       2 2     202207~ blank   Blank ""      ""    ""    25071.~ ""      ""      ""   
       3 3     202207~ blank   Blank ""      ""    ""    25559.~ ""      ""      ""   
       4 4     202207~ blank   Blank ""      ""    ""    25054.~ ""      ""      ""   
       5 5     202207~ blank   Blank ""      ""    ""    25825.~ ""      ""      ""   
       6 6     202207~ Lopera~ Anal~ ""      "2.3~ "288~ 11170.~ "1289.~ "bb"    ""   
       7 7     202207~ Lopera~ Anal~ ""      "2.3~ "269~ 10069.~ "1339.~ "bb"    ""   
       8 8     202207~ Lopera~ Anal~ ""      "2.3~ "337~ 14645.~ "1152.~ "bb"    ""   
       9 9     202207~ Lopera~ Anal~ ""      "2.3~ "314~ 11718.~ "1340.~ "bb"    ""   
      10 10    202207~ Lopera~ Anal~ ""      "2.3~ "296~ 11347.~ "1305.~ "bb"    ""   
      # ... with 15 more rows, 9 more variables: `%Dev` <chr>, `S/N` <chr>,
      #   `Conc. Dev. Flagged` <chr>, `Conc. Dev. Allowed` <chr>, `Pk Width` <chr>,
      #   Vial <chr>, Acq.Date <chr>, Acq.Time <chr>, ID <chr>, and abbreviated
      #   variable names 1: `Sample Text`, 2: `Std. Conc`, 3: `IS Area`, 4: Response,
      #   5: `Primary Flags`
      # i Use `print(n = ...)` to see more rows, and `colnames()` to see all variable names
…
