Split loaded file into data frames — ras.splitDataLines • aquaras
…
#> 14 14    202207… Ibupro… Anal… 50      3.96  11953 ""      11952.… bb      11.0…
#> 15 15    202207… Ibupro… Anal… 50      3.96  10112 ""      10112.… bb      9.31…
#> 16 16    202207… Ibupro… Anal… 50      3.96  9893  ""      9892.5… bb      9.11…
#> 17 17    202207… Ibupro… Anal… 50      3.96  8445  ""      8444.8… bb      7.78…
#> 18 18    202207… blank   Blank 50      3.96  7735  ""      7735.3… bb      7.12…
#> 19 19    202207… blank   Blank 50      3.96  8134  ""      8133.5… bb      7.49…
#> # … with 9 more variables: `%Dev` <chr>, `S/N` <chr>,
#> #   `Conc. Dev. Flagged` <chr>, `Conc. Dev. Allowed` <chr>, `Pk Width` <chr>,
#> #   Vial <chr>, Acq.Date <chr>, Acq.Time <chr>, ID <chr>, and abbreviated
#> #   variable names ¹​`Sample Text`, ²​`Std. Conc`, ³​`IS Area`, ⁴​Response,
#> #   ⁵​`Primary Flags`
#> # ℹ Use `colnames()` to see all variable names
#> 
#> $`Compound 2 Loperamide\t\t\t\t\t\t\t\t\t\t\t\t\t\t\t\t\t\t\t`
#> # A tibble: 25 × 20
#>    ...1  Name    Sampl…¹ Type  Std. …² RT    Area  IS Ar…³ Respo…⁴ Prima…⁵ nM   
#>    <chr> <chr>   <chr>   <chr> <chr>   <chr> <chr> <chr>   <chr>   <chr>   <chr>
#>  1 1     202207… blank   Blank ""      ""    ""    25432.… ""      ""      ""   
#>  2 2     202207… blank   Blank ""      ""    ""    25071.… ""      ""      ""   
#>  3 3     202207… blank   Blank ""      ""    ""    25559.… ""      ""      ""   
#>  4 4     202207… blank   Blank ""      ""    ""    25054.… ""      ""      ""   
#>  5 5     202207… blank   Blank ""      ""    ""    25825.… ""      ""      ""   
#>  6 6     202207… Lopera… Anal… ""      "2.3… "288… 11170.… "1289.… "bb"    ""   
#>  7 7     202207… Lopera… Anal… ""      "2.3… "269… 10069.… "1339.… "bb"    ""   
#>  8 8     202207… Lopera… Anal… ""      "2.3… "337… 14645.… "1152.… "bb"    ""   
#>  9 9     202207… Lopera… Anal… ""      "2.3… "314… 11718.… "1340.… "bb"    ""   
#> 10 10    202207… Lopera… Anal… ""      "2.3… "296… 11347.… "1305.… "bb"    ""   
#> # … with 15 more rows, 9 more variables: `%Dev` <chr>, `S/N` <chr>,
#> #   `Conc. Dev. Flagged` <chr>, `Conc. Dev. Allowed` <chr>, `Pk Width` <chr>,
#> #   Vial <chr>, Acq.Date <chr>, Acq.Time <chr>, ID <chr>, and abbreviated
#> #   variable names ¹​`Sample Text`, ²​`Std. Conc`, ³​`IS Area`, ⁴​Response,
#> #   ⁵​`Primary Flags`
#> # ℹ Use `print(n = ...)` to see more rows, and `colnames()` to see all variable names
…
